1 - user@user-Lenovo-V14-G2-ITL-Ua:~$ df -h
Filesystem      Size  Used Avail Use% Mounted on
udev            3.8G     0  3.8G   0% /dev
tmpfs           775M  1.9M  774M   1% /run
/dev/nvme0n1p2  468G   16G  430G   4% /
tmpfs           3.8G  140M  3.7G   4% /dev/shm
tmpfs           5.0M  4.0K  5.0M   1% /run/lock
tmpfs           3.8G     0  3.8G   0% /sys/fs/cgroup
/dev/loop0      128K  128K     0 100% /snap/bare/5
/dev/loop1       56M   56M     0 100% /snap/core18/1988
/dev/loop3       66M   66M     0 100% /snap/gtk-common-themes/1519
/dev/loop2      219M  219M     0 100% /snap/gnome-3-34-1804/77
/dev/loop5       52M   52M     0 100% /snap/snap-store/518
/dev/loop4       62M   62M     0 100% /snap/core20/1270
/dev/loop6       65M   65M     0 100% /snap/gtk-common-themes/1514
/dev/loop7      248M  248M     0 100% /snap/gnome-3-38-2004/87
/dev/loop8       56M   56M     0 100% /snap/core18/2284
/dev/loop9       62M   62M     0 100% /snap/core20/1328
/dev/loop10      32M   32M     0 100% /snap/snapd/11036
/dev/loop11      44M   44M     0 100% /snap/snapd/14549
/dev/nvme0n1p1  511M  5.3M  506M   2% /boot/efi
/dev/loop12      55M   55M     0 100% /snap/snap-store/558
/dev/loop13     219M  219M     0 100% /snap/gnome-3-34-1804/66
tmpfs           775M   52K  775M   1% /run/user/1000

2 - user@user-Lenovo-V14-G2-ITL-Ua:~$ free -h
              total        used        free      shared  buff/cache   available
Mem:          7.6Gi       2.1Gi       2.8Gi       592Mi       2.6Gi       4.6Gi
Swap:         2.0Gi          0B       2.0Gi


3 - top->m (files you opened will eating the memory too. So this will not help.)
user@user-Lenovo-V14-G2-ITL-Ua:~$ ps aux --sort=-%mem | head
USER         PID %CPU %MEM    VSZ   RSS TTY      STAT START   TIME COMMAND
mysql        767  0.0  4.8 2142948 382516 ?      Ssl  Feb08   1:08 /usr/sbin/mysqld

4 - ps -ef | grep chrome
	 ps: process state ,ef: full information, grep:search scrome keyword 
	 
5 - user@user-Lenovo-V14-G2-ITL-Ua:~$ du -ah|sort  -r|head -1
992K	./.config/google-chrome/Profile 1/Service Worker/CacheStorage/871542e6ee0a4b2e32ec11bb10d1b731c1b21384/249ab5e4-abec-41ac-85e3-91792cbdb660/b863254150ac4f4b_1

6 - user@user-Lenovo-V14-G2-ITL-Ua:~$ ps -e|grep chrome|wc -l (-e-all: all process , search keyword chrome, wc -l:counts no. of lines)
19


7 - user@user-Lenovo-V14-G2-ITL-Ua:~$ ps -e|sort -rss
    PID TTY          TIME CMD
   9795 ?        00:00:01 kworker/5:2-mm_percpu_wq
   9745 ?        00:00:01 kworker/4:0-events

9 - ps -A | grep chrome | cut -d " " -f 4
 cut separate process id 
 
10 - vim memory_uti.ch
     free -h >> ~/log.txt
     data >> ~/log.txt
     crontab -e
     */10 * * * *  ~/memory_uti.ch
     //I followed this steps but I could not find log.txt
     

     
     
